sim/ucsim/stm8.src/test/vcd-in/test.vcd
$date
	Sat Aug 22 00:57:06 2020
$end
$version
	ucsim
$end
$timescale 1ps $end
$scope module ucsim_vcd_0 $end
$var wire 1 ! loc1.0 $end
$var wire 1 " loc1.1 $end
$var wire 1 # loc1.2 $end
$var wire 1 $ loc1.3 $end
$var wire 1 % loc1.4 $end
$var wire 1 & loc1.5 $end
$var wire 1 ' loc1.6 $end
$var wire 1 ( loc1.7 $end
$var wire 8 ) loc2[7:0] $end
$upscope $end
$enddefinitions $end
$dumpvars
0!
0"
0#
0$
0%
0&
0'
0(
b00000000 )
$end
#2500000
1!
#3500000
b00000001 )
#4000000
1"
#4500000
0!
#5000000
b00000010 )
#5500000
1#
#6000000
0"
#6500000
b00000011 )
#7000000
1$
#7500000
0#
#8000000
b00000100 )
#8500000
1%
#9000000
0$
#9500000
b00000101 )
#10000000
1&
#10500000
0%
#11000000
b00000110 )
#11500000
1'
#12000000
0&
#12500000
b00000111 )
#13000000
1(
#13500000
0'
#14000000
b00001000 )
#15000000
1!
#16000000
b00001001 )
#17000000
0!
#17500000
b00001010 )
#18000000
1#
#19000000
b00001011 )
#20000000
0#
#20500000
b00001100 )
#21000000
1%
#22000000
b00001101 )
#23000000
0%
#23500000
b00001110 )
#24000000
1'
#25000000
b00001111 )
#26000000
0'
#26500000
b00010000 )
