sim/ucsim/stm8.src/test/vcd-in/test.vcd
$date
	Sat Aug 22 00:57:06 2020
$end
$version
	ucsim
$end
$timescale 1ns $end
$scope module ucsim_vcd_0 $end
$var wire 1 ! loc1.0 $end
$var wire 1 " loc1.1 $end
$var wire 1 # loc1.2 $end
$var wire 1 $ loc1.3 $end
$var wire 1 % loc1.4 $end
$var wire 1 & loc1.5 $end
$var wire 1 ' loc1.6 $end
$var wire 1 ( loc1.7 $end
$var wire 8 ) loc2[7:0] $end
$upscope $end
$enddefinitions $end
$dumpvars
0!
0"
0#
0$
0%
0&
0'
0(
b00000000 )
$end
#750
1!
#1000
b00000001 )
#1125
1"
#1250
0!
#1375
b00000010 )
#1500
1#
#1625
0"
#1750
b00000011 )
#1875
1$
#2000
0#
#2125
b00000100 )
#2250
1%
#2375
0$
#2500
b00000101 )
#2625
1&
#2750
0%
#2875
b00000110 )
#3000
1'
#3125
0&
#3250
b00000111 )
#3375
1(
#3500
0'
#3625
b00001000 )
#3875
1!
#4125
b00001001 )
#4375
0!
#4500
b00001010 )
#4625
1#
#4875
b00001011 )
#5125
0#
#5250
b00001100 )
#5375
1%
#5625
b00001101 )
#5875
0%
#6000
b00001110 )
#6125
1'
#6375
b00001111 )
#6625
0'
#6750
b00010000 )
