sim/ucsim/stm8.src/test/port/baseline/test.vcd
$date
	Date is omitted in quiet mode
$end
$version
	ucsim
$end
$timescale 1ps $end
$scope module ucsim_vcd_1 $end
$var wire 1 ! PC_IDR.5 $end
$var wire 1 " PC_IDR.2 $end
$var wire 8 # rom_0x00000 $end
$var wire 1 $ rom_0x050a3.2 $end
$var wire 2 % EXTI_CR1[5:4] $end
$upscope $end
$enddefinitions $end
#0
$dumpvars
0!
0"
b01000001 #
0$
b11 %
$end
#750000
b00000000 #
#53875000
1!
0"
1$
#54000000
0$
#54812000
1!
1"
1$
#55750000
b00000001 #
#57000000
0$
#58750000
b00000010 #
#65937000
0!
1"
1$
#66000000
0!
0"
#66125000
0$
#67875000
b00000011 #
#100250000
0!
1"
1$
#100500000
0$
#102250000
b00000100 #
#109000000
0!
0"
1$
#109125000
0$
#110250000
b01 %
#110875000
b00000101 #
#126312000
0!
1"
1$
#126500000
0$
#128250000
b00000110 #
#135062000
0!
0"
#143562000
1!
0"
1$
#143625000
0$
#143625000
1!
1"
1$
#145125000
b10 %
#145375000
b00000111 #
#146625000
0$
#148375000
b00001000 #
#152812000
0!
1"
1$
#152875000
0!
0"
#153000000
0$
#154750000
b00001001 #
#161062000
0!
1"
#169812000
0!
0"
1$
#169875000
0$
#171625000
b00001010 #
#187125000
0!
1"
#195875000
0!
0"
1$
#196000000
0$
#197125000
1$
b00 %
#197750000
b00001011 #
#199000000
1$
#200750000
b00001100 #
#202000000
1$
#203750000
b00001101 #
#204500000
0!
1"
#205000000
1$
#206750000
b00001110 #
#208000000
1$
#209750000
b00001111 #
#211000000
1$
#212750000
b00010000 #
#214000000
1$
#215750000
b00010001 #
#217000000
1$
#218750000
b00010010 #
#220000000
1$
#221750000
b00010011 #
#221937000
0!
0"
#223000000
1$
#224750000
b00010100 #
#226000000
1$
#227750000
b00010101 #
#229000000
1$
#230437000
1!
0"
#230750000
b00010110 #
#230500000
1!
1"
#232000000
0$
#233750000
b00010111 #
#239687000
0!
1"
1$
#239750000
0!
0"
#239875000
1$
#241625000
b00011000 #
#242875000
1$
#244625000
b00011001 #
#245875000
1$
#247625000
b00011010 #
#247937000
0!
1"
#248875000
1$
#250625000
b00011011 #
#251875000
1$
#253625000
b00011100 #
#254875000
1$
#256625000
b00011101 #
#256687000
0!
0"
#257875000
1$
#259625000
b00011110 #
#260875000
1$
#262625000
b00011111 #
#263875000
1$
#265312000
0!
1"
#265625000
b00100000 #
#266875000
1$
#268625000
b00100001 #
#269875000
1$
#271625000
b00100010 #
#272875000
1$
#274625000
b00100011 #
#275875000
1$
#277625000
b00100100 #
#278875000
1$
#280625000
b00100101 #
#281875000
1$
#282750000
0!
0"
#283625000
b00100110 #
#284875000
1$
#286625000
b00100111 #
#287875000
1$
#289625000
b00101000 #
#290875000
1$
#292625000
b00101001 #
#293875000
1$
#295625000
b00101010 #
#296875000
1$
#298625000
b00101011 #
#299875000
1$
#301625000
b00101100 #
#302875000
1$
#304625000
b00101101 #
#305875000
1$
#307625000
b00101110 #
#308875000
1$
#310625000
b00101111 #
#311875000
1$
#313625000
b00110000 #
#314875000
1$
#316625000
b00110001 #
#317312000
1!
0"
#317375000
1!
1"
#317875000
0$
#319625000
b00110010 #
#326562000
0!
1"
1$
#326625000
0!
0"
#326750000
1$
#328500000
b00110011 #
#329750000
1$
#331500000
b00110100 #
#332750000
1$
#334500000
b00110101 #
#335750000
1$
#337500000
b00110110 #
#338750000
1$
#340500000
b00110111 #
#341750000
1$
#343500000
b00111000 #
#343500000
0!
1"
#344750000
1$
#346500000
b00111001 #
#347750000
1$
#349500000
b00111010 #
#350750000
1$
#352500000
b00111011 #
#352250000
0!
0"
