sim/ucsim/stm8.src/test/port/baseline/test.vcd
$date
	[ELIDED]
$end
$version
	ucsim
$end
$timescale 1ps $end
$scope module ucsim_vcd_1 $end
$var wire 1 ! PC_IDR.5 $end
$var wire 1 " PC_IDR.2 $end
$var wire 8 # rom_0x00000 $end
$var wire 1 $ rom_0x050a3.2 $end
$var wire 2 % EXTI_CR1[5:4] $end
$upscope $end
$enddefinitions $end
#0
$dumpvars
0!
0"
b00001000 #
0$
b11 %
$end
#750000
b00000000 #
#53875000
1!
0"
1$
#54000000
0$
#54812000
1!
1"
1$
#55750000
b00000001 #
#57000000
0$
#58750000
b00000010 #
#65937000
0!
1"
1$
#66000000
0!
0"
#66125000
0$
#67875000
b00000011 #
#100250000
0!
1"
1$
#100500000
0$
#102250000
b00000100 #
#109000000
0!
0"
1$
#109125000
0$
#110875000
b00000101 #
#126312000
0!
1"
1$
#126500000
0$
#127625000
b01 %
#128250000
b00000110 #
#135062000
0!
0"
#143562000
1!
0"
1$
#143625000
0$
#143625000
1!
1"
1$
#145375000
b00000111 #
#146625000
0$
#148375000
b00001000 #
#152812000
0!
1"
#152875000
0!
0"
#161062000
0!
1"
1$
#161250000
0$
#162375000
b10 %
#163000000
b00001001 #
#169812000
0!
0"
1$
#169875000
0$
#171625000
b00001010 #
#187125000
0!
1"
#195875000
0!
0"
1$
#196000000
0$
#197750000
b00001011 #
#204500000
0!
1"
#221937000
0!
0"
1$
#222125000
0$
#223250000
1$
b00 %
#223875000
b00001100 #
#225125000
1$
#226875000
b00001101 #
#228125000
1$
#229875000
b00001110 #
#230437000
1!
0"
#230500000
1!
1"
#231125000
0$
#232875000
b00001111 #
#239687000
0!
1"
1$
#239750000
1$
#239750000
0!
0"
#241500000
b00010000 #
#242750000
1$
#244500000
b00010001 #
#245750000
1$
#247500000
b00010010 #
#247937000
0!
1"
#248750000
1$
#250500000
b00010011 #
#251750000
1$
#253500000
b00010100 #
#254750000
1$
#256500000
b00010101 #
#256687000
0!
0"
#257750000
1$
#259500000
b00010110 #
#260750000
1$
#262500000
b00010111 #
#263750000
1$
#265312000
0!
1"
#265500000
b00011000 #
#266750000
1$
#268500000
b00011001 #
#269750000
1$
#271500000
b00011010 #
#272750000
1$
#274500000
b00011011 #
#275750000
1$
#277500000
b00011100 #
#278750000
1$
#280500000
b00011101 #
#281750000
1$
#282750000
0!
0"
#283500000
b00011110 #
#284750000
1$
#286500000
b00011111 #
#287750000
1$
#289500000
b00100000 #
#290750000
1$
#292500000
b00100001 #
#293750000
1$
#295500000
b00100010 #
#296750000
1$
#298500000
b00100011 #
#299750000
1$
#301500000
b00100100 #
#302750000
1$
#304500000
b00100101 #
#305750000
1$
#307500000
b00100110 #
#308750000
1$
#310500000
b00100111 #
#311750000
1$
#313500000
b00101000 #
#314750000
1$
#316500000
b00101001 #
#317312000
1!
0"
#317375000
1!
1"
#317750000
0$
#319500000
b00101010 #
#326562000
0!
1"
1$
#326625000
1$
#326625000
0!
0"
#328375000
b00101011 #
#329625000
1$
#331375000
b00101100 #
#332625000
1$
#334375000
b00101101 #
#335625000
1$
#337375000
b00101110 #
#338625000
1$
#340375000
b00101111 #
#341625000
1$
#343375000
b00110000 #
#343500000
0!
1"
#344625000
1$
#346375000
b00110001 #
#347625000
1$
#349375000
b00110010 #
#350625000
1$
#352250000
0!
0"
#352375000
b00110011 #
#353625000
1$
#355375000
b00110100 #
#356625000
1$
#358375000
b00110101 #
#359625000
1$
#360875000
0!
1"
#361375000
b00110110 #
#362625000
1$
#364375000
b00110111 #
#365625000
1$
#367375000
b00111000 #
#368625000
1$
#369625000
0!
0"
#370375000
b00111001 #
#371625000
1$
#373375000
b00111010 #
#374625000
1$
#376375000
b00111011 #
#377625000
1$
#379375000
b00111100 #
#380625000
1$
#382375000
b00111101 #
#383625000
1$
#385375000
b00111110 #
#386625000
1$
#388375000
b00111111 #
#389625000
1$
#391375000
b01000000 #
#392625000
1$
#394375000
b01000001 #
#395625000
1$
#397375000
b01000010 #
#398625000
1$
#400375000
b01000011 #
#401625000
1$
#403375000
b01000100 #
#404187000
1!
0"
#404250000
1!
1"
#404625000
0$
