sim/ucsim/stm8.src/test/vcd-out/baseline/test.vcd
$date
	Wed Nov 24 09:02:32 2021
$end
$version
	ucsim
$end
$timescale 1ns $end
$scope module ucsim_vcd_0 $end
$var wire 1 ! loc1.0 $end
$var wire 1 " loc1.1 $end
$var wire 1 # loc1.2 $end
$var wire 1 $ loc1.3 $end
$var wire 1 % loc1.4 $end
$var wire 1 & loc1.5 $end
$var wire 1 ' loc1.6 $end
$var wire 1 ( loc1.7 $end
$var wire 8 ) loc2 $end
$upscope $end
$enddefinitions $end
$dumpvars
0!
0"
0#
0$
0%
0&
0'
0(
b00000000 )
$end
#750
1!
0"
0#
0$
0%
0&
0'
0(
#875
1!
0"
0#
0$
0%
0&
0'
0(
#1000
b00000001 )
#1125
1!
1"
0#
0$
0%
0&
0'
0(
#1250
0!
1"
0#
0$
0%
0&
0'
0(
#1375
b00000010 )
#1500
0!
1"
1#
0$
0%
0&
0'
0(
#1625
0!
0"
1#
0$
0%
0&
0'
0(
#1750
b00000011 )
#1875
0!
0"
1#
1$
0%
0&
0'
0(
#2000
0!
0"
0#
1$
0%
0&
0'
0(
#2125
b00000100 )
#2250
0!
0"
0#
1$
1%
0&
0'
0(
#2375
0!
0"
0#
0$
1%
0&
0'
0(
#2500
b00000101 )
#2625
0!
0"
0#
0$
1%
1&
0'
0(
#2750
0!
0"
0#
0$
0%
1&
0'
0(
#2875
b00000110 )
#3000
0!
0"
0#
0$
0%
1&
1'
0(
#3125
0!
0"
0#
0$
0%
0&
1'
0(
#3250
b00000111 )
#3375
0!
0"
0#
0$
0%
0&
1'
1(
#3500
0!
0"
0#
0$
0%
0&
0'
1(
#3625
b00001000 )
#3875
1!
0#
0%
0'
#4000
1!
0#
0%
0'
#4125
b00001001 )
#4250
1!
0#
0%
0'
#4375
0!
0#
0%
0'
#4500
b00001010 )
#4625
0!
1#
0%
0'
#4750
0!
1#
0%
0'
#4875
b00001011 )
#5000
0!
1#
0%
0'
#5125
0!
0#
0%
0'
#5250
b00001100 )
#5375
0!
0#
1%
0'
#5500
0!
0#
1%
0'
#5625
b00001101 )
#5750
0!
0#
1%
0'
#5875
0!
0#
0%
0'
#6000
b00001110 )
#6125
0!
0#
0%
1'
#6250
0!
0#
0%
1'
#6375
b00001111 )
#6500
0!
0#
0%
1'
#6625
0!
0#
0%
0'
#6750
b00010000 )
